{
  "project_info": {
    "project_number": "413158180297",
    "project_id": "ebcexampleapp"
  },
  "client": [
    {
      "client_info": {
        "mobilesdk_app_id": "1:413158180297:android:adbfab02a489480d",
        "android_client_info": {
          "package_name": "org.mpisws.exampleapp"
        }
      },
      "oauth_client": [
        {
          "client_id": "413158180297-d7vuc8a96q2461geimovg4e5njmnsglt.apps.googleusercontent.com",
          "client_type": 3
        },
        {
          "client_id": "413158180297-g3ms5vbi9cb4fkpr8p05fvttbfmula0p.apps.googleusercontent.com",
          "client_type": 1,
          "android_info": {
            "package_name": "org.mpisws.exampleapp",
            "certificate_hash": "120fc2e0baba17cd022d8ed50842620f96948501"
          }
        }
      ],
      "api_key": [
        {
          "current_key": "AIzaSyAqJf2M2cSL7PE_ISwxLKNDfn626pCJpxI"
        }
      ],
      "services": {
        "analytics_service": {
          "status": 1
        },
        "appinvite_service": {
          "status": 1,
          "other_platform_oauth_client": []
        },
        "ads_service": {
          "status": 1
        }
      }
    }
  ],
  "configuration_version": "1"
}